{
  "frames": {
    "attack1": {
      "frame": {
        "x": 942,
        "y": 1237,
        "w": 389,
        "h": 617
      },
      "spriteSourceSize": {
        "x": 56,
        "y": 40,
        "w": 587,
        "h": 707
      },
      "sourceSize": {
        "w": 587,
        "h": 707
      }
    },
    "attack10": {
      "frame": {
        "x": 498,
        "y": 0,
        "w": 465,
        "h": 615
      },
      "spriteSourceSize": {
        "x": 45,
        "y": 41,
        "w": 587,
        "h": 707
      },
      "sourceSize": {
        "w": 587,
        "h": 707
      }
    },
    "attack2": {
      "frame": {
        "x": 1357,
        "y": 0,
        "w": 364,
        "h": 618
      },
      "spriteSourceSize": {
        "x": 74,
        "y": 40,
        "w": 587,
        "h": 707
      },
      "sourceSize": {
        "w": 587,
        "h": 707
      }
    },
    "attack3": {
      "frame": {
        "x": 1357,
        "y": 619,
        "w": 352,
        "h": 617
      },
      "spriteSourceSize": {
        "x": 77,
        "y": 41,
        "w": 587,
        "h": 707
      },
      "sourceSize": {
        "w": 587,
        "h": 707
      }
    },
    "attack4": {
      "frame": {
        "x": 1332,
        "y": 1237,
        "w": 356,
        "h": 617
      },
      "spriteSourceSize": {
        "x": 69,
        "y": 41,
        "w": 587,
        "h": 707
      },
      "sourceSize": {
        "w": 587,
        "h": 707
      }
    },
    "attack5": {
      "frame": {
        "x": 942,
        "y": 616,
        "w": 414,
        "h": 620
      },
      "spriteSourceSize": {
        "x": 52,
        "y": 40,
        "w": 587,
        "h": 707
      },
      "sourceSize": {
        "w": 587,
        "h": 707
      }
    },
    "attack6": {
      "frame": {
        "x": 472,
        "y": 1207,
        "w": 469,
        "h": 603
      },
      "spriteSourceSize": {
        "x": 52,
        "y": 56,
        "w": 587,
        "h": 707
      },
      "sourceSize": {
        "w": 587,
        "h": 707
      }
    },
    "attack7": {
      "frame": {
        "x": 0,
        "y": 1207,
        "w": 471,
        "h": 600
      },
      "spriteSourceSize": {
        "x": 52,
        "y": 58,
        "w": 587,
        "h": 707
      },
      "sourceSize": {
        "w": 587,
        "h": 707
      }
    },
    "attack8": {
      "frame": {
        "x": 0,
        "y": 610,
        "w": 472,
        "h": 596
      },
      "spriteSourceSize": {
        "x": 53,
        "y": 61,
        "w": 587,
        "h": 707
      },
      "sourceSize": {
        "w": 587,
        "h": 707
      }
    },
    "attack9": {
      "frame": {
        "x": 0,
        "y": 0,
        "w": 497,
        "h": 609
      },
      "spriteSourceSize": {
        "x": 43,
        "y": 48,
        "w": 587,
        "h": 707
      },
      "sourceSize": {
        "w": 587,
        "h": 707
      }
    }
  },
  "meta": {
    "image": "sprites.png",
    "size": {
      "w": 1722,
      "h": 1855
    },
    "scale": "1"
  }
}